iso_code,continent,location,date,total_cases,new_cases,new_cases_smoothed,total_deaths,new_deaths,new_deaths_smoothed,total_cases_per_million,new_cases_per_million,new_cases_smoothed_per_million,total_deaths_per_million,new_deaths_per_million,new_deaths_smoothed_per_million,reproduction_rate,icu_patients,icu_patients_per_million,hosp_patients,hosp_patients_per_million,weekly_icu_admissions,weekly_icu_admissions_per_million,weekly_hosp_admissions,weekly_hosp_admissions_per_million,new_tests,total_tests,total_tests_per_thousand,new_tests_per_thousand,new_tests_smoothed,new_tests_smoothed_per_thousand,positive_rate,tests_per_case,tests_units,total_vaccinations,people_vaccinated,people_fully_vaccinated,total_boosters,new_vaccinations,new_vaccinations_smoothed,total_vaccinations_per_hundred,people_vaccinated_per_hundred,people_fully_vaccinated_per_hundred,total_boosters_per_hundred,new_vaccinations_smoothed_per_million,stringency_index,population,population_density,median_age,aged_65_older,aged_70_older,gdp_per_capita,extreme_poverty,cardiovasc_death_rate,diabetes_prevalence,female_smokers,male_smokers,handwashing_facilities,hospital_beds_per_thousand,life_expectancy,human_development_index,excess_mortality
AFG,Asia,Afghanistan,2020-02-24,1.0,1.0,,,,,0.025,0.025,,,,,,,,,,,,,,,,,,,,,,,,,,,,,,,,,,8.33,39835428.0,54.422,18.6,2.581,1.337,1803.987,,597.029,9.59,,,37.746,0.5,64.83,0.511,
AFG,Asia,Afghanistan,2020-02-25,1.0,0.0,,,,,0.025,0.0,,,,,,,,,,,,,,,,,,,,,,,,,,,,,,,,,,8.33,39835428.0,54.422,18.6,2.581,1.337,1803.987,,597.029,9.59,,,37.746,0.5,64.83,0.511,
AFG,Asia,Afghanistan,2020-02-26,1.0,0.0,,,,,0.025,0.0,,,,,,,,,,,,,,,,,,,,,,,,,,,,,,,,,,8.33,39835428.0,54.422,18.6,2.581,1.337,1803.987,,597.029,9.59,,,37.746,0.5,64.83,0.511,
AFG,Asia,Afghanistan,2020-02-27,1.0,0.0,,,,,0.025,0.0,,,,,,,,,,,,,,,,,,,,,,,,,,,,,,,,,,8.33,39835428.0,54.422,18.6,2.581,1.337,1803.987,,597.029,9.59,,,37.746,0.5,64.83,0.511,
AFG,Asia,Afghanistan,2020-02-28,1.0,0.0,,,,,0.025,0.0,,,,,,,,,,,,,,,,,,,,,,,,,,,,,,,,,,8.33,39835428.0,54.422,18.6,2.581,1.337,1803.987,,597.029,9.59,,,37.746,0.5,64.83,0.511,
AFG,Asia,Afghanistan,2020-02-29,1.0,0.0,0.143,,,0.0,0.025,0.0,0.004,,,0.0,,,,,,,,,,,,,,,,,,,,,,,,,,,,,,8.33,39835428.0,54.422,18.6,2.581,1.337,1803.987,,597.029,9.59,,,37.746,0.5,64.83,0.511,
AFG,Asia,Afghanistan,2020-03-01,1.0,0.0,0.143,,,0.0,0.025,0.0,0.004,,,0.0,,,,,,,,,,,,,,,,,,,,,,,,,,,,,,27.78,39835428.0,54.422,18.6,2.581,1.337,1803.987,,597.029,9.59,,,37.746,0.5,64.83,0.511,
AFG,Asia,Afghanistan,2020-03-02,1.0,0.0,0.0,,,0.0,0.025,0.0,0.0,,,0.0,,,,,,,,,,,,,,,,,,,,,,,,,,,,,,27.78,39835428.0,54.422,18.6,2.581,1.337,1803.987,,597.029,9.59,,,37.746,0.5,64.83,0.511,
AFG,Asia,Afghanistan,2020-03-03,2.0,1.0,0.143,,,0.0,0.05,0.025,0.004,,,0.0,,,,,,,,,,,,,,,,,,,,,,,,,,,,,,27.78,39835428.0,54.422,18.6,2.581,1.337,1803.987,,597.029,9.59,,,37.746,0.5,64.83,0.511,
AFG,Asia,Afghanistan,2020-03-04,4.0,2.0,0.429,,,0.0,0.1,0.05,0.011,,,0.0,,,,,,,,,,,,,,,,,,,,,,,,,,,,,,27.78,39835428.0,54.422,18.6,2.581,1.337,1803.987,,597.029,9.59,,,37.746,0.5,64.83,0.511,
AFG,Asia,Afghanistan,2020-03-05,4.0,0.0,0.429,,,0.0,0.1,0.0,0.011,,,0.0,,,,,,,,,,,,,,,,,,,,,,,,,,,,,,27.78,39835428.0,54.422,18.6,2.581,1.337,1803.987,,597.029,9.59,,,37.746,0.5,64.83,0.511,
AFG,Asia,Afghanistan,2020-03-06,4.0,0.0,0.429,,,0.0,0.1,0.0,0.011,,,0.0,,,,,,,,,,,,,,,,,,,,,,,,,,,,,,27.78,39835428.0,54.422,18.6,2.581,1.337,1803.987,,597.029,9.59,,,37.746,0.5,64.83,0.511,
AFG,Asia,Afghanistan,2020-03-07,4.0,0.0,0.429,,,0.0,0.1,0.0,0.011,,,0.0,,,,,,,,,,,,,,,,,,,,,,,,,,,,,,27.78,39835428.0,54.422,18.6,2.581,1.337,1803.987,,597.029,9.59,,,37.746,0.5,64.83,0.511,
AFG,Asia,Afghanistan,2020-03-08,5.0,1.0,0.571,,,0.0,0.126,0.025,0.014,,,0.0,,,,,,,,,,,,,,,,,,,,,,,,,,,,,,27.78,39835428.0,54.422,18.6,2.581,1.337,1803.987,,597.029,9.59,,,37.746,0.5,64.83,0.511,
AFG,Asia,Afghanistan,2020-03-09,7.0,2.0,0.857,,,0.0,0.176,0.05,0.022,,,0.0,,,,,,,,,,,,,,,,,,,,,,,,,,,,,,27.78,39835428.0,54.422,18.6,2.581,1.337,1803.987,,597.029,9.59,,,37.746,0.5,64.83,0.511,
AFG,Asia,Afghanistan,2020-03-10,8.0,1.0,0.857,,,0.0,0.201,0.025,0.022,,,0.0,,,,,,,,,,,,,,,,,,,,,,,,,,,,,,27.78,39835428.0,54.422,18.6,2.581,1.337,1803.987,,597.029,9.59,,,37.746,0.5,64.83,0.511,
AFG,Asia,Afghanistan,2020-03-11,11.0,3.0,1.0,,,0.0,0.276,0.075,0.025,,,0.0,,,,,,,,,,,,,,,,,,,,,,,,,,,,,,27.78,39835428.0,54.422,18.6,2.581,1.337,1803.987,,597.029,9.59,,,37.746,0.5,64.83,0.511,
AFG,Asia,Afghanistan,2020-03-12,12.0,1.0,1.143,,,0.0,0.301,0.025,0.029,,,0.0,,,,,,,,,,,,,,,,,,,,,,,,,,,,,,27.78,39835428.0,54.422,18.6,2.581,1.337,1803.987,,597.029,9.59,,,37.746,0.5,64.83,0.511,
AFG,Asia,Afghanistan,2020-03-13,13.0,1.0,1.286,,,0.0,0.326,0.025,0.032,,,0.0,,,,,,,,,,,,,,,,,,,,,,,,,,,,,,27.78,39835428.0,54.422,18.6,2.581,1.337,1803.987,,597.029,9.59,,,37.746,0.5,64.83,0.511,
AFG,Asia,Afghanistan,2020-03-14,15.0,2.0,1.571,,,0.0,0.377,0.05,0.039,,,0.0,,,,,,,,,,,,,,,,,,,,,,,,,,,,,,38.89,39835428.0,54.422,18.6,2.581,1.337,1803.987,,597.029,9.59,,,37.746,0.5,64.83,0.511,
AFG,Asia,Afghanistan,2020-03-15,16.0,1.0,1.571,,,0.0,0.402,0.025,0.039,,,0.0,,,,,,,,,,,,,,,,,,,,,,,,,,,,,,38.89,39835428.0,54.422,18.6,2.581,1.337,1803.987,,597.029,9.59,,,37.746,0.5,64.83,0.511,
AFG,Asia,Afghanistan,2020-03-16,18.0,2.0,1.571,,,0.0,0.452,0.05,0.039,,,0.0,,,,,,,,,,,,,,,,,,,,,,,,,,,,,,38.89,39835428.0,54.422,18.6,2.581,1.337,1803.987,,597.029,9.59,,,37.746,0.5,64.83,0.511,
AFG,Asia,Afghanistan,2020-03-17,20.0,2.0,1.714,,,0.0,0.502,0.05,0.043,,,0.0,,,,,,,,,,,,,,,,,,,,,,,,,,,,,,38.89,39835428.0,54.422,18.6,2.581,1.337,1803.987,,597.029,9.59,,,37.746,0.5,64.83,0.511,
AFG,Asia,Afghanistan,2020-03-18,24.0,4.0,1.857,,,0.0,0.602,0.1,0.047,,,0.0,,,,,,,,,,,,,,,,,,,,,,,,,,,,,,41.67,39835428.0,54.422,18.6,2.581,1.337,1803.987,,597.029,9.59,,,37.746,0.5,64.83,0.511,
AFG,Asia,Afghanistan,2020-03-19,25.0,1.0,1.857,,,0.0,0.628,0.025,0.047,,,0.0,,,,,,,,,,,,,,,,,,,,,,,,,,,,,,41.67,39835428.0,54.422,18.6,2.581,1.337,1803.987,,597.029,9.59,,,37.746,0.5,64.83,0.511,
AFG,Asia,Afghanistan,2020-03-20,29.0,4.0,2.286,,,0.0,0.728,0.1,0.057,,,0.0,,,,,,,,,,,,,,,,,,,,,,,,,,,,,,41.67,39835428.0,54.422,18.6,2.581,1.337,1803.987,,597.029,9.59,,,37.746,0.5,64.83,0.511,
AFG,Asia,Afghanistan,2020-03-21,30.0,1.0,2.143,,,0.0,0.753,0.025,0.054,,,0.0,,,,,,,,,,,,,,,,,,,,,,,,,,,,,,41.67,39835428.0,54.422,18.6,2.581,1.337,1803.987,,597.029,9.59,,,37.746,0.5,64.83,0.511,
AFG,Asia,Afghanistan,2020-03-22,34.0,4.0,2.571,1.0,1.0,0.143,0.854,0.1,0.065,0.025,0.025,0.004,,,,,,,,,,,,,,,,,,,,,,,,,,,,,,41.67,39835428.0,54.422,18.6,2.581,1.337,1803.987,,597.029,9.59,,,37.746,0.5,64.83,0.511,
AFG,Asia,Afghanistan,2020-03-23,41.0,7.0,3.286,1.0,0.0,0.143,1.029,0.176,0.082,0.025,0.0,0.004,,,,,,,,,,,,,,,,,,,,,,,,,,,,,,41.67,39835428.0,54.422,18.6,2.581,1.337,1803.987,,597.029,9.59,,,37.746,0.5,64.83,0.511,
AFG,Asia,Afghanistan,2020-03-24,43.0,2.0,3.286,1.0,0.0,0.143,1.079,0.05,0.082,0.025,0.0,0.004,,,,,,,,,,,,,,,,,,,,,,,,,,,,,,50.93,39835428.0,54.422,18.6,2.581,1.337,1803.987,,597.029,9.59,,,37.746,0.5,64.83,0.511,
AFG,Asia,Afghanistan,2020-03-25,76.0,33.0,7.429,2.0,1.0,0.286,1.908,0.828,0.186,0.05,0.025,0.007,,,,,,,,,,,,,,,,,,,,,,,,,,,,,,59.26,39835428.0,54.422,18.6,2.581,1.337,1803.987,,597.029,9.59,,,37.746,0.5,64.83,0.511,
AFG,Asia,Afghanistan,2020-03-26,80.0,4.0,7.857,3.0,1.0,0.429,2.008,0.1,0.197,0.075,0.025,0.011,,,,,,,,,,,,,,,,,,,,,,,,,,,,,,59.26,39835428.0,54.422,18.6,2.581,1.337,1803.987,,597.029,9.59,,,37.746,0.5,64.83,0.511,
AFG,Asia,Afghanistan,2020-03-27,91.0,11.0,8.857,3.0,0.0,0.429,2.284,0.276,0.222,0.075,0.0,0.011,,,,,,,,,,,,,,,,,,,,,,,,,,,,,,59.26,39835428.0,54.422,18.6,2.581,1.337,1803.987,,597.029,9.59,,,37.746,0.5,64.83,0.511,
AFG,Asia,Afghanistan,2020-03-28,107.0,16.0,11.0,4.0,1.0,0.571,2.686,0.402,0.276,0.1,0.025,0.014,,,,,,,,,,,,,,,,,,,,,,,,,,,,,,67.59,39835428.0,54.422,18.6,2.581,1.337,1803.987,,597.029,9.59,,,37.746,0.5,64.83,0.511,
AFG,Asia,Afghanistan,2020-03-29,118.0,11.0,12.0,4.0,0.0,0.429,2.962,0.276,0.301,0.1,0.0,0.011,1.47,,,,,,,,,,,,,,,,,,,,,,,,,,,,,67.59,39835428.0,54.422,18.6,2.581,1.337,1803.987,,597.029,9.59,,,37.746,0.5,64.83,0.511,
AFG,Asia,Afghanistan,2020-03-30,146.0,28.0,15.0,4.0,0.0,0.429,3.665,0.703,0.377,0.1,0.0,0.011,1.47,,,,,,,,,,,,,,,,,,,,,,,,,,,,,67.59,39835428.0,54.422,18.6,2.581,1.337,1803.987,,597.029,9.59,,,37.746,0.5,64.83,0.511,
AFG,Asia,Afghanistan,2020-03-31,175.0,29.0,18.857,4.0,0.0,0.429,4.393,0.728,0.473,0.1,0.0,0.011,1.47,,,,,,,,,,,,,,,,,,,,,,,,,,,,,67.59,39835428.0,54.422,18.6,2.581,1.337,1803.987,,597.029,9.59,,,37.746,0.5,64.83,0.511,
AFG,Asia,Afghanistan,2020-04-01,197.0,22.0,17.286,4.0,0.0,0.286,4.945,0.552,0.434,0.1,0.0,0.007,1.47,,,,,,,,,,,,,,,,,,,,,,,,,,,,,67.59,39835428.0,54.422,18.6,2.581,1.337,1803.987,,597.029,9.59,,,37.746,0.5,64.83,0.511,
AFG,Asia,Afghanistan,2020-04-02,240.0,43.0,22.857,4.0,0.0,0.143,6.025,1.079,0.574,0.1,0.0,0.004,1.47,,,,,,,,,,,,,,,,,,,,,,,,,,,,,67.59,39835428.0,54.422,18.6,2.581,1.337,1803.987,,597.029,9.59,,,37.746,0.5,64.83,0.511,
AFG,Asia,Afghanistan,2020-04-03,275.0,35.0,26.286,8.0,4.0,0.714,6.903,0.879,0.66,0.201,0.1,0.018,1.46,,,,,,,,,,,,,,,,,,,,,,,,,,,,,67.59,39835428.0,54.422,18.6,2.581,1.337,1803.987,,597.029,9.59,,,37.746,0.5,64.83,0.511,
AFG,Asia,Afghanistan,2020-04-04,300.0,25.0,27.571,10.0,2.0,0.857,7.531,0.628,0.692,0.251,0.05,0.022,1.45,,,,,,,,,,,,,,,,,,,,,,,,,,,,,67.59,39835428.0,54.422,18.6,2.581,1.337,1803.987,,597.029,9.59,,,37.746,0.5,64.83,0.511,
AFG,Asia,Afghanistan,2020-04-05,338.0,38.0,31.429,12.0,2.0,1.143,8.485,0.954,0.789,0.301,0.05,0.029,1.44,,,,,,,,,,,,,,,,,,,,,,,,,,,,,78.7,39835428.0,54.422,18.6,2.581,1.337,1803.987,,597.029,9.59,,,37.746,0.5,64.83,0.511,
AFG,Asia,Afghanistan,2020-04-06,368.0,30.0,31.714,15.0,3.0,1.571,9.238,0.753,0.796,0.377,0.075,0.039,1.42,,,,,,,,,,,,,,,,,,,,,,,,,,,,,78.7,39835428.0,54.422,18.6,2.581,1.337,1803.987,,597.029,9.59,,,37.746,0.5,64.83,0.511,
AFG,Asia,Afghanistan,2020-04-07,424.0,56.0,35.571,16.0,1.0,1.714,10.644,1.406,0.893,0.402,0.025,0.043,1.42,,,,,,,,,,,,,,,,,,,,,,,,,,,,,78.7,39835428.0,54.422,18.6,2.581,1.337,1803.987,,597.029,9.59,,,37.746,0.5,64.83,0.511,
AFG,Asia,Afghanistan,2020-04-08,445.0,21.0,35.429,16.0,0.0,1.714,11.171,0.527,0.889,0.402,0.0,0.043,1.4,,,,,,,,,,,,,,,,,,,,,,,,,,,,,78.7,39835428.0,54.422,18.6,2.581,1.337,1803.987,,597.029,9.59,,,37.746,0.5,64.83,0.511,
AFG,Asia,Afghanistan,2020-04-09,485.0,40.0,35.0,17.0,1.0,1.857,12.175,1.004,0.879,0.427,0.025,0.047,1.4,,,,,,,,,,,,,,,,,,,,,,,,,,,,,78.7,39835428.0,54.422,18.6,2.581,1.337,1803.987,,597.029,9.59,,,37.746,0.5,64.83,0.511,
AFG,Asia,Afghanistan,2020-04-10,532.0,47.0,36.714,18.0,1.0,1.429,13.355,1.18,0.922,0.452,0.025,0.036,1.39,,,,,,,,,,,,,,,,,,,,,,,,,,,,,78.7,39835428.0,54.422,18.6,2.581,1.337,1803.987,,597.029,9.59,,,37.746,0.5,64.83,0.511,
AFG,Asia,Afghanistan,2020-04-11,556.0,24.0,36.571,18.0,0.0,1.143,13.957,0.602,0.918,0.452,0.0,0.029,1.39,,,,,,,,,,,,,,,,,,,,,,,,,,,,,78.7,39835428.0,54.422,18.6,2.581,1.337,1803.987,,597.029,9.59,,,37.746,0.5,64.83,0.511,
AFG,Asia,Afghanistan,2020-04-12,608.0,52.0,38.571,19.0,1.0,1.0,15.263,1.305,0.968,0.477,0.025,0.025,1.4,,,,,,,,,,,,,,,,,,,,,,,,,,,,,84.26,39835428.0,54.422,18.6,2.581,1.337,1803.987,,597.029,9.59,,,37.746,0.5,64.83,0.511,
AFG,Asia,Afghanistan,2020-04-13,666.0,58.0,42.571,22.0,3.0,1.0,16.719,1.456,1.069,0.552,0.075,0.025,1.4,,,,,,,,,,,,,,,,,,,,,,,,,,,,,84.26,39835428.0,54.422,18.6,2.581,1.337,1803.987,,597.029,9.59,,,37.746,0.5,64.83,0.511,
AFG,Asia,Afghanistan,2020-04-14,715.0,49.0,41.571,23.0,1.0,1.0,17.949,1.23,1.044,0.577,0.025,0.025,1.39,,,,,,,,,,,,,,,,,,,,,,,,,,,,,84.26,39835428.0,54.422,18.6,2.581,1.337,1803.987,,597.029,9.59,,,37.746,0.5,64.83,0.511,
AFG,Asia,Afghanistan,2020-04-15,785.0,70.0,48.571,29.0,6.0,1.857,19.706,1.757,1.219,0.728,0.151,0.047,1.39,,,,,,,,,,,,,,,,,,,,,,,,,,,,,84.26,39835428.0,54.422,18.6,2.581,1.337,1803.987,,597.029,9.59,,,37.746,0.5,64.83,0.511,
AFG,Asia,Afghanistan,2020-04-16,841.0,56.0,50.857,30.0,1.0,1.857,21.112,1.406,1.277,0.753,0.025,0.047,1.39,,,,,,,,,,,,,,,,,,,,,,,,,,,,,84.26,39835428.0,54.422,18.6,2.581,1.337,1803.987,,597.029,9.59,,,37.746,0.5,64.83,0.511,
AFG,Asia,Afghanistan,2020-04-17,907.0,66.0,53.571,30.0,0.0,1.714,22.769,1.657,1.345,0.753,0.0,0.043,1.38,,,,,,,,,,,,,,,,,,,,,,,,,,,,,84.26,39835428.0,54.422,18.6,2.581,1.337,1803.987,,597.029,9.59,,,37.746,0.5,64.83,0.511,
AFG,Asia,Afghanistan,2020-04-18,934.0,27.0,54.0,30.0,0.0,1.714,23.446,0.678,1.356,0.753,0.0,0.043,1.38,,,,,,,,,,,,,,,,,,,,,,,,,,,,,84.26,39835428.0,54.422,18.6,2.581,1.337,1803.987,,597.029,9.59,,,37.746,0.5,64.83,0.511,
AFG,Asia,Afghanistan,2020-04-19,997.0,63.0,55.571,33.0,3.0,2.0,25.028,1.582,1.395,0.828,0.075,0.05,1.38,,,,,,,,,,,,,,,,,,,,,,,,,,,,,84.26,39835428.0,54.422,18.6,2.581,1.337,1803.987,,597.029,9.59,,,37.746,0.5,64.83,0.511,
AFG,Asia,Afghanistan,2020-04-20,1027.0,30.0,51.571,36.0,3.0,2.0,25.781,0.753,1.295,0.904,0.075,0.05,1.39,,,,,,,,,,,,,,,,,,,,,,,,,,,,,84.26,39835428.0,54.422,18.6,2.581,1.337,1803.987,,597.029,9.59,,,37.746,0.5,64.83,0.511,
AFG,Asia,Afghanistan,2020-04-21,1093.0,66.0,54.0,36.0,0.0,1.857,27.438,1.657,1.356,0.904,0.0,0.047,1.41,,,,,,,,,,,,,,,,,,,,,,,,,,,,,84.26,39835428.0,54.422,18.6,2.581,1.337,1803.987,,597.029,9.59,,,37.746,0.5,64.83,0.511,
AFG,Asia,Afghanistan,2020-04-22,1177.0,84.0,56.0,40.0,4.0,1.571,29.547,2.109,1.406,1.004,0.1,0.039,1.44,,,,,,,,,,,,,,,,,,,,,,,,,,,,,84.26,39835428.0,54.422,18.6,2.581,1.337,1803.987,,597.029,9.59,,,37.746,0.5,64.83,0.511,
AFG,Asia,Afghanistan,2020-04-23,1236.0,59.0,56.429,40.0,0.0,1.429,31.028,1.481,1.417,1.004,0.0,0.036,1.46,,,,,,,,,,,,,,,,,,,,,,,,,,,,,84.26,39835428.0,54.422,18.6,2.581,1.337,1803.987,,597.029,9.59,,,37.746,0.5,64.83,0.511,
AFG,Asia,Afghanistan,2020-04-24,1331.0,95.0,60.571,43.0,3.0,1.857,33.412,2.385,1.521,1.079,0.075,0.047,1.48,,,,,,,,,,,,,,,,,,,,,,,,,,,,,84.26,39835428.0,54.422,18.6,2.581,1.337,1803.987,,597.029,9.59,,,37.746,0.5,64.83,0.511,
AFG,Asia,Afghanistan,2020-04-25,1464.0,133.0,75.714,47.0,4.0,2.429,36.751,3.339,1.901,1.18,0.1,0.061,1.5,,,,,,,,,,,,,,,,,,,,,,,,,,,,,84.26,39835428.0,54.422,18.6,2.581,1.337,1803.987,,597.029,9.59,,,37.746,0.5,64.83,0.511,
AFG,Asia,Afghanistan,2020-04-26,1532.0,68.0,76.429,52.0,5.0,2.714,38.458,1.707,1.919,1.305,0.126,0.068,1.51,,,,,,,,,,,,,,,,,,,,,,,,,,,,,84.26,39835428.0,54.422,18.6,2.581,1.337,1803.987,,597.029,9.59,,,37.746,0.5,64.83,0.511,
AFG,Asia,Afghanistan,2020-04-27,1704.0,172.0,96.714,58.0,6.0,3.143,42.776,4.318,2.428,1.456,0.151,0.079,1.52,,,,,,,,,,,,,,,,,,,,,,,,,,,,,84.26,39835428.0,54.422,18.6,2.581,1.337,1803.987,,597.029,9.59,,,37.746,0.5,64.83,0.511,
AFG,Asia,Afghanistan,2020-04-28,1830.0,126.0,105.286,59.0,1.0,3.286,45.939,3.163,2.643,1.481,0.025,0.082,1.52,,,,,,,,,,,,,,,,,,,,,,,,,,,,,84.26,39835428.0,54.422,18.6,2.581,1.337,1803.987,,597.029,9.59,,,37.746,0.5,64.83,0.511,
AFG,Asia,Afghanistan,2020-04-29,1940.0,110.0,109.0,61.0,2.0,3.0,48.7,2.761,2.736,1.531,0.05,0.075,1.52,,,,,,,,,,,,,,,,,,,,,,,,,,,,,84.26,39835428.0,54.422,18.6,2.581,1.337,1803.987,,597.029,9.59,,,37.746,0.5,64.83,0.511,
AFG,Asia,Afghanistan,2020-04-30,2127.0,187.0,127.286,64.0,3.0,3.429,53.395,4.694,3.195,1.607,0.075,0.086,1.52,,,,,,,,,,,,,,,,,,,,,,,,,,,,,84.26,39835428.0,54.422,18.6,2.581,1.337,1803.987,,597.029,9.59,,,37.746,0.5,64.83,0.511,
AFG,Asia,Afghanistan,2020-05-01,2291.0,164.0,137.143,68.0,4.0,3.571,57.512,4.117,3.443,1.707,0.1,0.09,1.52,,,,,,,,,,,,,,,,,,,,,,,,,,,,,84.26,39835428.0,54.422,18.6,2.581,1.337,1803.987,,597.029,9.59,,,37.746,0.5,64.83,0.511,
AFG,Asia,Afghanistan,2020-05-02,2470.0,179.0,143.714,72.0,4.0,3.571,62.005,4.493,3.608,1.807,0.1,0.09,1.52,,,,,,,,,,,,,,,,,,,,,,,,,,,,,84.26,39835428.0,54.422,18.6,2.581,1.337,1803.987,,597.029,9.59,,,37.746,0.5,64.83,0.511,
AFG,Asia,Afghanistan,2020-05-03,2705.0,235.0,167.571,85.0,13.0,4.714,67.904,5.899,4.207,2.134,0.326,0.118,1.51,,,,,,,,,,,,,,,,,,,,,,,,,,,,,84.26,39835428.0,54.422,18.6,2.581,1.337,1803.987,,597.029,9.59,,,37.746,0.5,64.83,0.511,
AFG,Asia,Afghanistan,2020-05-04,2895.0,190.0,170.143,90.0,5.0,4.571,72.674,4.77,4.271,2.259,0.126,0.115,1.5,,,,,,,,,,,,,,,,,,,,,,,,,,,,,84.26,39835428.0,54.422,18.6,2.581,1.337,1803.987,,597.029,9.59,,,37.746,0.5,64.83,0.511,
AFG,Asia,Afghanistan,2020-05-05,3225.0,330.0,199.286,95.0,5.0,5.143,80.958,8.284,5.003,2.385,0.126,0.129,1.48,,,,,,,,,,,,,,,,,,,,,,,,,,,,,84.26,39835428.0,54.422,18.6,2.581,1.337,1803.987,,597.029,9.59,,,37.746,0.5,64.83,0.511,
AFG,Asia,Afghanistan,2020-05-06,3393.0,168.0,207.571,104.0,9.0,6.143,85.175,4.217,5.211,2.611,0.226,0.154,1.46,,,,,,,,,,,,,,,,,,,,,,,,,,,,,84.26,39835428.0,54.422,18.6,2.581,1.337,1803.987,,597.029,9.59,,,37.746,0.5,64.83,0.511,
AFG,Asia,Afghanistan,2020-05-07,3564.0,171.0,205.286,106.0,2.0,6.0,89.468,4.293,5.153,2.661,0.05,0.151,1.45,,,,,,,,,,,,,,,,,,,,,,,,,,,,,84.26,39835428.0,54.422,18.6,2.581,1.337,1803.987,,597.029,9.59,,,37.746,0.5,64.83,0.511,
AFG,Asia,Afghanistan,2020-05-08,3781.0,217.0,212.857,109.0,3.0,5.857,94.916,5.447,5.343,2.736,0.075,0.147,1.44,,,,,,,,,,,,,,,,,,,,,,,,,,,,,84.26,39835428.0,54.422,18.6,2.581,1.337,1803.987,,597.029,9.59,,,37.746,0.5,64.83,0.511,
AFG,Asia,Afghanistan,2020-05-09,4042.0,261.0,224.571,115.0,6.0,6.143,101.467,6.552,5.637,2.887,0.151,0.154,1.44,,,,,,,,,,,,,,,,,,,,,,,,,,,,,84.26,39835428.0,54.422,18.6,2.581,1.337,1803.987,,597.029,9.59,,,37.746,0.5,64.83,0.511,
AFG,Asia,Afghanistan,2020-05-10,4403.0,361.0,242.571,120.0,5.0,5.0,110.53,9.062,6.089,3.012,0.126,0.126,1.44,,,,,,,,,,,,,,,,,,,,,,,,,,,,,84.26,39835428.0,54.422,18.6,2.581,1.337,1803.987,,597.029,9.59,,,37.746,0.5,64.83,0.511,
AFG,Asia,Afghanistan,2020-05-11,4687.0,284.0,256.0,122.0,2.0,4.571,117.659,7.129,6.426,3.063,0.05,0.115,1.42,,,,,,,,,,,,,,,,,,,,,,,,,,,,,84.26,39835428.0,54.422,18.6,2.581,1.337,1803.987,,597.029,9.59,,,37.746,0.5,64.83,0.511,
AFG,Asia,Afghanistan,2020-05-12,4968.0,281.0,249.0,127.0,5.0,4.571,124.713,7.054,6.251,3.188,0.126,0.115,1.41,,,,,,,,,,,,,,,,,,,,,,,,,,,,,84.26,39835428.0,54.422,18.6,2.581,1.337,1803.987,,597.029,9.59,,,37.746,0.5,64.83,0.511,
AFG,Asia,Afghanistan,2020-05-13,5227.0,259.0,262.0,132.0,5.0,4.0,131.215,6.502,6.577,3.314,0.126,0.1,1.41,,,,,,,,,,,,,,,,,,,,,,,,,,,,,84.26,39835428.0,54.422,18.6,2.581,1.337,1803.987,,597.029,9.59,,,37.746,0.5,64.83,0.511,
AFG,Asia,Afghanistan,2020-05-14,5640.0,413.0,296.571,136.0,4.0,4.286,141.583,10.368,7.445,3.414,0.1,0.108,1.41,,,,,,,,,,,,,,,,,,,,,,,,,,,,,84.26,39835428.0,54.422,18.6,2.581,1.337,1803.987,,597.029,9.59,,,37.746,0.5,64.83,0.511,
AFG,Asia,Afghanistan,2020-05-15,6054.0,414.0,324.714,153.0,17.0,6.286,151.975,10.393,8.151,3.841,0.427,0.158,1.4,,,,,,,,,,,,,,,,,,,,,,,,,,,,,84.26,39835428.0,54.422,18.6,2.581,1.337,1803.987,,597.029,9.59,,,37.746,0.5,64.83,0.511,
AFG,Asia,Afghanistan,2020-05-16,6403.0,349.0,337.286,168.0,15.0,7.571,160.736,8.761,8.467,4.217,0.377,0.19,1.39,,,,,,,,,,,,,,,,,,,,,,,,,,,,,84.26,39835428.0,54.422,18.6,2.581,1.337,1803.987,,597.029,9.59,,,37.746,0.5,64.83,0.511,
AFG,Asia,Afghanistan,2020-05-17,6665.0,262.0,323.143,170.0,2.0,7.143,167.313,6.577,8.112,4.268,0.05,0.179,1.38,,,,,,,,,,,,,,,,,,,,,,,,,,,,,84.26,39835428.0,54.422,18.6,2.581,1.337,1803.987,,597.029,9.59,,,37.746,0.5,64.83,0.511,
AFG,Asia,Afghanistan,2020-05-18,7073.0,408.0,340.857,173.0,3.0,7.286,177.556,10.242,8.557,4.343,0.075,0.183,1.38,,,,,,,,,,,,,,,,,,,,,,,,,,,,,84.26,39835428.0,54.422,18.6,2.581,1.337,1803.987,,597.029,9.59,,,37.746,0.5,64.83,0.511,
AFG,Asia,Afghanistan,2020-05-19,7654.0,581.0,383.714,178.0,5.0,7.286,192.141,14.585,9.632,4.468,0.126,0.183,1.38,,,,,,,,,,,,,,,,,,,,,,,,,,,,,84.26,39835428.0,54.422,18.6,2.581,1.337,1803.987,,597.029,9.59,,,37.746,0.5,64.83,0.511,
AFG,Asia,Afghanistan,2020-05-20,8146.0,492.0,417.0,188.0,10.0,8.0,204.491,12.351,10.468,4.719,0.251,0.201,1.38,,,,,,,,,,,,,,,,,,,,,,,,,,,,,84.26,39835428.0,54.422,18.6,2.581,1.337,1803.987,,597.029,9.59,,,37.746,0.5,64.83,0.511,
AFG,Asia,Afghanistan,2020-05-21,8677.0,531.0,433.857,194.0,6.0,8.286,217.821,13.33,10.891,4.87,0.151,0.208,1.37,,,,,,,,,,,,,,,,,,,,,,,,,,,,,84.26,39835428.0,54.422,18.6,2.581,1.337,1803.987,,597.029,9.59,,,37.746,0.5,64.83,0.511,
AFG,Asia,Afghanistan,2020-05-22,9219.0,542.0,452.143,206.0,12.0,7.571,231.427,13.606,11.35,5.171,0.301,0.19,1.36,,,,,,,,,,,,,,,,,,,,,,,,,,,,,84.26,39835428.0,54.422,18.6,2.581,1.337,1803.987,,597.029,9.59,,,37.746,0.5,64.83,0.511,
AFG,Asia,Afghanistan,2020-05-23,10001.0,782.0,514.0,217.0,11.0,7.0,251.058,19.631,12.903,5.447,0.276,0.176,1.35,,,,,,,,,,,,,,,,,,,,,,,,,,,,,84.26,39835428.0,54.422,18.6,2.581,1.337,1803.987,,597.029,9.59,,,37.746,0.5,64.83,0.511,
AFG,Asia,Afghanistan,2020-05-24,10585.0,584.0,560.0,219.0,2.0,7.0,265.718,14.66,14.058,5.498,0.05,0.176,1.32,,,,,,,,,,,,,,,,,,,,,,,,,,,,,84.26,39835428.0,54.422,18.6,2.581,1.337,1803.987,,597.029,9.59,,,37.746,0.5,64.83,0.511,
AFG,Asia,Afghanistan,2020-05-25,11176.0,591.0,586.143,220.0,1.0,6.714,280.554,14.836,14.714,5.523,0.025,0.169,1.3,,,,,,,,,,,,,,,,,,,,,,,,,,,,,84.26,39835428.0,54.422,18.6,2.581,1.337,1803.987,,597.029,9.59,,,37.746,0.5,64.83,0.511,
AFG,Asia,Afghanistan,2020-05-26,11834.0,658.0,597.143,221.0,1.0,6.143,297.072,16.518,14.99,5.548,0.025,0.154,1.28,,,,,,,,,,,,,,,,,,,,,,,,,,,,,84.26,39835428.0,54.422,18.6,2.581,1.337,1803.987,,597.029,9.59,,,37.746,0.5,64.83,0.511,
AFG,Asia,Afghanistan,2020-05-27,12459.0,625.0,616.143,228.0,7.0,5.714,312.762,15.69,15.467,5.724,0.176,0.143,1.26,,,,,,,,,,,,,,,,,,,,,,,,,,,,,84.26,39835428.0,54.422,18.6,2.581,1.337,1803.987,,597.029,9.59,,,37.746,0.5,64.83,0.511,
AFG,Asia,Afghanistan,2020-05-28,13039.0,580.0,623.143,236.0,8.0,6.0,327.322,14.56,15.643,5.924,0.201,0.151,1.24,,,,,,,,,,,,,,,,,,,,,,,,,,,,,84.26,39835428.0,54.422,18.6,2.581,1.337,1803.987,,597.029,9.59,,,37.746,0.5,64.83,0.511,
AFG,Asia,Afghanistan,2020-05-29,13662.0,623.0,634.714,247.0,11.0,5.857,342.961,15.639,15.933,6.201,0.276,0.147,1.23,,,,,,,,,,,,,,,,,,,,,,,,,,,,,84.26,39835428.0,54.422,18.6,2.581,1.337,1803.987,,597.029,9.59,,,37.746,0.5,64.83,0.511,
AFG,Asia,Afghanistan,2020-05-30,14528.0,866.0,646.714,250.0,3.0,4.714,364.7,21.739,16.235,6.276,0.075,0.118,1.21,,,,,,,,,,,,,,,,,,,,,,,,,,,,,84.26,39835428.0,54.422,18.6,2.581,1.337,1803.987,,597.029,9.59,,,37.746,0.5,64.83,0.511,
AFG,Asia,Afghanistan,2020-05-31,15208.0,680.0,660.429,258.0,8.0,5.571,381.771,17.07,16.579,6.477,0.201,0.14,1.2,,,,,,,,,,,,,,,,,,,,,,,,,,,,,84.26,39835428.0,54.422,18.6,2.581,1.337,1803.987,,597.029,9.59,,,37.746,0.5,64.83,0.511,
AFG,Asia,Afghanistan,20200601,15753.0,545.0,653.857,266.0,8.0,6.571,395.452,13.681,16.414,6.677,0.201,0.165,1.18,,,,,,,,,,,,,,,,,,,,,,,,,,,,,84.26,39835428.0,54.422,18.6,2.581,1.337,1803.987,,597.029,9.59,,,37.746,0.5,64.83,0.511,
